$MeshFormat
4.1 0 8
$EndMeshFormat
$Entities
13 18 12 3
1 0 0 0 0 
2 0.07000000000000001 0 0 0 
3 0 0.07000000000000001 0 0 
4 0 0 0.07000000000000001 0 
5 0.04178571428571429 0 0 0 
6 0 0.04178571428571429 0 0 
7 0 0 0.05014285714285715 0 
8 0.06900000000000001 0 0 0 
9 0 0.06900000000000001 0 0 
10 0 0 0.06900000000000001 0 
11 0.035 0.03500000000000001 0.04949747468305832 0 
12 0.0345 0.03450000000000001 0.04879036790187178 0 
50 0.02269860490066001 0.02269860490066001 0.03210067489746178 0 
1 -4.988791253067448e-05 -4.98879125306953e-05 -4.988791253068716e-05 0.0700498879125307 0.0700498879125307 4.988791253068716e-05 0 2 2 -3 
2 -7.483112048480706e-05 -7.483112048482577e-05 -7.483112048484175e-05 0.07007483112048483 7.483112048482577e-05 0.07007483112048483 0 2 2 -4 
3 -7.483112048482573e-05 -7.4831120484814e-05 -7.483112048482787e-05 7.483112048482573e-05 0.07007483112048483 0.07007483112048483 0 2 3 -4 
4 -4.988791253067795e-05 -4.988791253069183e-05 -4.988791253068716e-05 0.04183560219824498 0.04183560219824498 4.988791253068716e-05 0 2 5 -6 
5 -4.988791253068836e-05 -4.988791253068711e-05 -4.988791253068489e-05 0.04183560219824498 4.988791253068711e-05 0.05019274505538784 0 2 7 -5 
6 -4.988791253068716e-05 -4.988791253068836e-05 -4.988791253068489e-05 4.988791253068716e-05 0.04183560219824498 0.05019274505538784 0 2 7 -6 
7 0.04173582637318361 -4.988791253068716e-05 -4.988791253068716e-05 0.06904988791253069 4.988791253068716e-05 4.988791253068716e-05 0 2 8 -5 
8 -4.988791253068716e-05 0.04173582637318361 -4.988791253068716e-05 4.988791253068716e-05 0.06904988791253069 4.988791253068716e-05 0 2 9 -6 
9 -4.988791253068716e-05 -4.988791253068716e-05 0.05009296923032646 4.988791253068716e-05 4.988791253068716e-05 0.06904988791253069 0 2 10 -7 
10 -4.988791253068716e-05 -4.988791253068836e-05 -4.988791253068716e-05 4.988791253068716e-05 0.04183560219824498 4.988791253068716e-05 0 2 1 -6 
11 -4.988791253068836e-05 -4.988791253068716e-05 -4.988791253068716e-05 0.04183560219824498 4.988791253068716e-05 4.988791253068716e-05 0 2 1 -5 
12 -4.988791253068716e-05 -4.988791253068716e-05 -4.988791253068836e-05 4.988791253068716e-05 4.988791253068716e-05 0.05019274505538784 0 2 1 -7 
13 -4.988791253067448e-05 -4.98879125306953e-05 -4.988791253068716e-05 0.06904988791253069 0.06904988791253069 4.988791253068716e-05 0 2 8 -9 
14 -7.376210438410358e-05 -7.376210438412353e-05 -7.376210438413827e-05 0.06907376210438412 7.376210438412353e-05 0.06907376210438412 0 2 8 -10 
15 -7.376210438412233e-05 -7.376210438411052e-05 -7.376210438412439e-05 7.376210438412233e-05 0.06907376210438412 0.06907376210438412 0 2 9 -10 
16 0.06895011208746932 -4.988791253068716e-05 -4.988791253068716e-05 0.0700498879125307 4.988791253068716e-05 4.988791253068716e-05 0 2 8 -2 
17 -4.988791253068716e-05 0.06895011208746932 -4.988791253068716e-05 4.988791253068716e-05 0.0700498879125307 4.988791253068716e-05 0 2 9 -3 
18 -4.988791253068716e-05 -4.988791253068716e-05 0.06895011208746932 4.988791253068716e-05 4.988791253068716e-05 0.0700498879125307 0 2 10 -4 
1 -0.06875370380994864 -0.06875370380889909 -0.02540125126565916 0.07384115694115628 0.07384115694297785 0.07906172712867755 1 4 3 1 3 -2 
2 -7.483112048482787e-05 -7.483112048482577e-05 -7.483112048484175e-05 0.07007483112048483 7.483112048482577e-05 0.07007483112048483 0 4 16 2 -18 -14 
3 -7.483112048482573e-05 -7.483112048482787e-05 -7.483112048482787e-05 7.483112048482573e-05 0.07007483112048483 0.07007483112048483 0 4 17 3 -18 -15 
4 -4.988791253068836e-05 -4.98879125306953e-05 -4.988791253068716e-05 0.0700498879125307 0.0700498879125307 4.988791253068716e-05 1 1 4 16 1 -17 -13 
5 -0.06777150946844596 -0.06777150946503917 -0.02503837767523601 0.07278628469812809 0.07278628469849822 0.07793227531067279 1 5 3 13 15 -14 
6 -7.376210438412439e-05 -7.376210438412353e-05 -7.376210438413827e-05 0.06907376210438412 7.376210438412353e-05 0.06907376210438412 0 4 7 -5 -9 -14 
7 -7.376210438412233e-05 -7.376210438412439e-05 -7.376210438412439e-05 7.376210438412233e-05 0.06907376210438412 0.06907376210438412 0 4 8 -6 -9 -15 
8 -4.988791253068836e-05 -4.98879125306953e-05 -4.988791253068716e-05 0.06904988791253069 0.06904988791253069 4.988791253068716e-05 1 1 4 7 4 -8 -13 
9 -0.04697591204596883 -0.04697591204615413 -0.01273906747753668 0.04259182343195493 0.04259182343121216 0.05052466282152761 1 6 3 4 -6 5 
10 -4.988791253068836e-05 -4.988791253068716e-05 -4.988791253068836e-05 0.04183560219824498 4.988791253068716e-05 0.05019274505538784 0 3 11 -5 -12 
11 -4.988791253068716e-05 -4.988791253068836e-05 -4.988791253068836e-05 4.988791253068716e-05 0.04183560219824498 0.05019274505538784 0 3 10 -6 -12 
12 -4.988791253068836e-05 -4.988791253069183e-05 -4.988791253068716e-05 0.04183560219824498 0.04183560219824498 4.988791253068716e-05 1 1 3 11 4 -10 
0 -0.06882843493043346 -0.06882843492938392 -0.02547598238614399 0.07391588806164111 0.07391588806346269 0.07913645824916238 1 0 5 1 2 5 3 4 
1 -0.06784517157283007 -0.06784517156942328 -0.02511203977962015 0.0728599468025122 0.07285994680288234 0.0780059374150569 1 1 5 5 6 9 7 8 
2 -0.04702569995849952 -0.04702569995868482 -0.01278885539006737 0.04264161134448562 0.04264161134374285 0.05057445073405829 1 2 4 9 10 11 12 
$EndEntities
$Nodes
46 374 1 374
0 1 0 1
1
0 0 0
0 2 0 1
2
0.07000000000000001 0 0
0 3 0 1
3
0 0.07000000000000001 0
0 4 0 1
4
0 0 0.07000000000000001
0 5 0 1
5
0.04178571428571429 0 0
0 6 0 1
6
0 0.04178571428571429 0
0 7 0 1
7
0 0 0.05014285714285715
0 8 0 1
8
0.06900000000000001 0 0
0 9 0 1
9
0 0.06900000000000001 0
0 10 0 1
10
0 0 0.06900000000000001
0 11 0 1
372
0.035 0.03500000000000001 0.04949747468305832
0 12 0 1
373
0.0345 0.03450000000000001 0.04879036790187178
0 50 0 1
374
0.02269860490066001 0.02269860490066001 0.03210067489746178
1 1 0 9
11
12
13
14
15
16
17
18
19
0.06913818384165965 0.01095041255281612 0
0.06657395614066078 0.02163118960624625 0
0.06237045669318581 0.03177933498176819 0
0.05663118960624641 0.04114496766047301 0
0.04949747468305843 0.04949747468305823 0
0.04114496766047319 0.05663118960624628 0
0.03177933498176835 0.06237045669318572 0
0.02163118960624639 0.06657395614066074 0
0.01095041255281617 0.06913818384165964 0
1 2 0 9
20
21
22
23
24
25
26
27
28
0.06913818384165965 0 0.01095041255281615
0.06657395614066078 0 0.02163118960624625
0.06237045669318582 0 0.03177933498176815
0.05663118960624641 0 0.04114496766047301
0.04949747468305843 0 0.04949747468305823
0.04114496766047323 0 0.05663118960624624
0.03177933498176835 0 0.06237045669318572
0.0216311896062464 0 0.06657395614066074
0.01095041255281618 0 0.06913818384165964
1 3 0 9
29
30
31
32
33
34
35
36
37
0 0.06913818384165965 0.01095041255281616
0 0.06657395614066076 0.0216311896062463
0 0.06237045669318578 0.03177933498176824
0 0.05663118960624636 0.04114496766047307
0 0.04949747468305836 0.0494974746830583
0 0.0411449676604731 0.05663118960624634
0 0.03177933498176823 0.06237045669318578
0 0.02163118960624621 0.06657395614066079
0 0.01095041255281611 0.06913818384165966
1 4 0 5
38
39
40
41
42
0.04036190059850751 0.01081493867035534 0
0.03618749008670691 0.02089285714285715 0
0.02954696192815216 0.02954696192815218 0
0.02089285714285713 0.03618749008670692 0
0.01081493867035533 0.04036190059850751 0
1 5 0 6
43
44
45
46
47
48
0.0101869362280672 0 0.04862995001087088
0.01954545189872067 0 0.04431918962432287
0.02749708031852122 0 0.03775628886618443
0.03375530431695706 0 0.02955571860613837
0.03822507186795368 0 0.0202544145963851
0.04089735151468894 0 0.01028453609697095
1 6 0 6
49
50
51
52
53
54
0 0.0101869362280672 0.04862995001087088
0 0.01954545189872067 0.04431918962432287
0 0.02749708031852122 0.03775628886618443
0 0.03375530431695706 0.02955571860613837
0 0.03822507186795368 0.0202544145963851
0 0.04089735151468894 0.01028453609697095
1 7 0 2
55
56
0.05992857142857142 0 0
0.05085714285714283 0 0
1 8 0 2
57
58
0 0.05992857142857142 0
0 0.05085714285714283 0
1 9 0 1
59
0 0 0.05957142857142858
1 10 0 3
60
61
62
0 0.01044642857142859 0
0 0.02089285714285717 0
0 0.03133928571428576 0
1 11 0 3
63
64
65
0.01044642857142859 0 0
0.02089285714285717 0 0
0.03133928571428576 0 0
1 12 0 4
66
67
68
69
0 0 0.01002857142857141
0 0 0.02005714285714281
0 0 0.03008571428571423
0 0 0.04011428571428569
1 13 0 9
70
71
72
73
74
75
76
77
78
0.06815049550106451 0.01079397808777592 0
0.06562289962436561 0.02132217261187136 0
0.06147945016899739 0.03132534448202873 0
0.05582217261187138 0.04055718240818064 0
0.04879036790187179 0.04879036790187178 0
0.04055718240818066 0.05582217261187137 0
0.03132534448202874 0.06147945016899738 0
0.02132217261187138 0.0656228996243656 0
0.01079397808777594 0.0681504955010645 0
1 14 0 9
79
80
81
82
83
84
85
86
87
0.06815049550106451 0 0.01079397808777592
0.06562289962436561 0 0.02132217261187136
0.06147945016899739 0 0.03132534448202872
0.05582217261187138 0 0.04055718240818063
0.04879036790187179 0 0.04879036790187177
0.04055718240818067 0 0.05582217261187137
0.03132534448202874 0 0.06147945016899738
0.02132217261187139 0 0.0656228996243656
0.01079397808777595 0 0.0681504955010645
1 15 0 9
88
89
90
91
92
93
94
95
96
0 0.0681504955010645 0.01079397808777594
0 0.06562289962436559 0.0213221726118714
0 0.06147945016899736 0.03132534448202878
0 0.05582217261187135 0.04055718240818069
0 0.04879036790187172 0.04879036790187184
0 0.04055718240818058 0.05582217261187142
0 0.03132534448202863 0.06147945016899745
0 0.02132217261187123 0.06562289962436564
0 0.01079397808777588 0.06815049550106451
1 16 0 0
1 17 0 0
1 18 0 0
2 1 0 68
97
98
99
100
101
102
103
104
105
106
107
108
109
110
111
112
113
114
115
116
117
118
119
120
121
122
123
124
125
126
127
128
129
130
131
132
133
134
135
136
137
138
139
140
141
142
143
144
145
146
147
148
149
150
151
152
153
154
155
156
157
158
159
160
161
162
163
164
0.04562832085225027 0.05349964507831033 0.009498932927344016
0.04546106343319019 0.009240942136901608 0.05294772598536315
0.009259987886733002 0.05322604121072208 0.04531175273998862
0.05989920844140913 0.0368171412265461 0.009418253393804563
0.009153118050077288 0.03632415949059289 0.05961695977117903
0.009115050406642188 0.06462646401656423 0.02728014827376032
0.008239750350171422 0.01597090846512545 0.06807230653349335
0.06037676719819175 0.009577958661387906 0.03553369895431688
0.06777555578411466 0.009705717174320991 0.01753637851288314
0.02710133898418677 0.06481491138313331 0.009568723695312694
0.02634837631456487 0.01093122017898881 0.06455025171527806
0.01180230621973212 0.06860314482975743 0.01189779653115663
0.05344181839832597 0.04569902606049021 0.009455513853032865
0.04877473624164186 0.04882394110821142 0.01889527932952256
0.04068706352679965 0.05574627740116837 0.01898888030201826
0.04278735721525374 0.04992963010078986 0.02804658265332031
0.05028125740509971 0.04255329176510259 0.02781079782703378
0.04326798441568306 0.04291032009107335 0.03613117871252412
0.03533840841144949 0.04992372569386429 0.03606186164451248
0.03524592600411296 0.04234598760967115 0.043621930235563
0.0430570322669732 0.03471851150421636 0.04340149844875142
0.03463126912400714 0.03390738417329504 0.05057730114822338
0.02673150136591723 0.04144468831886062 0.05001376351108389
0.02621121912283859 0.03262662515716891 0.05653877720182333
0.03372381978376073 0.02477110167472082 0.05657117841426666
0.02556030444778314 0.02265133758863799 0.06188947743627492
0.06485919237833784 0.02702027126954622 0.009345267250855296
0.06156697697189306 0.03133655927556912 0.01871875153553126
0.06559750880225242 0.02107241227110359 0.01851675927357229
0.06132014376560772 0.02490276954975817 0.02734460667575924
0.0641842866965735 0.01498248381137628 0.02685263399095498
0.009351147161991613 0.05972341370809357 0.03661824932595345
0.01864259748079015 0.06126634052719758 0.03139881286914856
0.01947024441517974 0.06580839956084775 0.01936482037059617
0.02664463661983268 0.06090940125224206 0.02671778709399145
0.05341197341451769 0.009280119960857324 0.04509614055637542
0.04839601750315053 0.01852971676453547 0.04791875464302513
0.03648310476182321 0.009008632201004403 0.05953501605736037
0.01551446681637191 0.009167717613432011 0.068091799549702
0.006733367365055965 0.00732303052041862 0.06943812574091092
0.009203043138341664 0.04533253113103737 0.05306180138272111
0.009017305788899591 0.02610530227701568 0.06486172088788308
0.02705670514123177 0.04954559542057056 0.04254777551456219
0.03681855117828001 0.0598973223182054 0.009439278131801197
0.05588814316147812 0.04055962917488554 0.01882416837476111
0.05049041950085806 0.03511714266279325 0.03559112781651506
0.01835985925631578 0.05545523098124129 0.04029161461884938
0.06810098859195797 0.01654995991218188 0.00891499895331639
0.03167318242634752 0.06147910747422543 0.01838996507106563
0.05547124408164079 0.01858915483441757 0.04018043772424345
0.04198935771458577 0.02633345471862315 0.04980103517329647
0.04991581046784541 0.02702198730587626 0.0421884461628846
0.01832949425323511 0.04809880748465483 0.04827582697151549
0.01806382299137755 0.039550962986627 0.05542492190284708
0.01798436495305361 0.02963661043907199 0.06155232400271788
0.05663581173185878 0.0341717353442656 0.02750012963070485
0.02716716260354086 0.05609206607135662 0.03468785211288249
0.04001959426563366 0.01760702882840475 0.05523972817819023
0.03268963669115727 0.01715862225306567 0.06014670143321053
0.03484359473057513 0.0559580026618376 0.0279733125100971
0.0562973214698983 0.02665344860761634 0.0347539703979605
0.01821876325897943 0.0179978680867334 0.06594657785333022
0.06941779900475394 0.007769470176231447 0.007769470176231448
0.06025275559223192 0.01849861737524149 0.03325986389247166
0.01897793996175423 0.06758178773436396 0.007886456306989031
0.007776535503760484 0.06753288781366576 0.01893270116613113
0.06488175249939787 0.00627471336607924 0.0268749018357539
0.005774381029807645 0.06967405044799414 0.005794377205303504
2 2 0 0
2 3 0 0
2 4 0 0
2 5 0 66
165
166
167
168
169
170
171
172
173
174
175
176
177
178
179
180
181
182
183
184
185
186
187
188
189
190
191
192
193
194
195
196
197
198
199
200
201
202
203
204
205
206
207
208
209
210
211
212
213
214
215
216
217
218
219
220
221
222
223
224
225
226
227
228
229
230
0.008966008618997398 0.0525135781432614 0.0446308400385349
0.05273536443418425 0.0449764876971087 0.009363233885539559
0.04469574152757742 0.009163910747377813 0.05228198845030885
0.03621340369267327 0.0590904684682341 0.009296034780353062
0.008849467471681404 0.03591092799283131 0.05871971535387207
0.05887026086975405 0.009373231727355359 0.03607574225899372
0.067096604296099 0.009238864156844962 0.01610144582002284
0.009271039322945521 0.06380472949061648 0.02661011851964286
0.06397882384613457 0.02650089654174385 0.009365332569990012
0.0258808371275955 0.01102934818135798 0.06363238784605117
0.01586934104950838 0.06718498816445269 0.00930120809478077
0.008691588682137059 0.01545863201589223 0.06711483766521553
0.04498940305851214 0.05272783537800718 0.009302896534106361
0.04807069525176406 0.04813811706295931 0.01861242308603748
0.05518541331214478 0.03985152201403779 0.0185490115186592
0.04949409529840754 0.04194988351994697 0.0275172733267796
0.04193371253720529 0.0495931384892945 0.02738121880397748
0.04233224995167108 0.04262025073029722 0.03560984522529381
0.04954059381883093 0.03454353446529954 0.03541507887219042
0.04180071361478997 0.03470255855375173 0.04297742291905471
0.03422253276828482 0.04244193180621082 0.04278147704243503
0.03339937027132252 0.03423844912162705 0.0497998026494164
0.0255063162145794 0.04162167024770844 0.04915221956971932
0.04892936731478939 0.02638247109176131 0.04202172272482471
0.02626751434824678 0.0492288422793167 0.04178337756260632
0.05563875174760221 0.02543338303762728 0.03461540550774204
0.02463824084249706 0.03307338245935489 0.05576191460849367
0.0323048879109941 0.02568690507548519 0.05571838737456915
0.02277875383921426 0.02399335898516547 0.06134391609154065
0.06715936504688418 0.01606658419049706 0.009095289148133595
0.06498718210033018 0.01982442725105161 0.01794797721600402
0.06368051619685333 0.0116060545202234 0.02646468997941074
0.06848725964286992 0.007052008742698035 0.007405170103408066
0.02626543645955163 0.0640471730822364 0.009825759288057866
0.03093888082857084 0.06061343020238762 0.01864269207571649
0.008899238349935125 0.05889597483371267 0.03609149979636879
0.01805918619375143 0.06045480818848426 0.03097857019916816
0.0197269926402536 0.06446457213849532 0.02009184896217252
0.05247130105129039 0.009046679195127177 0.04466868688796113
0.03593961825805184 0.009223763528585021 0.05865765862582087
0.008979279425015953 0.04477181965968877 0.05224262506212077
0.01086139312383608 0.02573529299542544 0.06371481535218528
0.04098196924270114 0.02631228484512248 0.04921710526830761
0.05908928488647588 0.03620996034905739 0.009362652327567183
0.03456441621060918 0.04973429177224774 0.03516879415169487
0.03995113083347956 0.05510284522757083 0.01858319801668596
0.05611934908587318 0.03296880949156286 0.02737718440754024
0.06103373446893148 0.03009651195142759 0.01862320370846968
0.008699466483539723 0.06711031752179661 0.01619931207509304
0.01566189892491651 0.008522382423679364 0.06708570248308851
0.03914020601072766 0.01768901168154208 0.05456162209053193
0.04741681056814528 0.01791766044281089 0.04763749782122061
0.05467365803879332 0.01770949720609151 0.03985274912212462
0.03392824459648644 0.05573379843479184 0.02699542084495838
0.01782941436408792 0.04774988642700002 0.04735514414493412
0.01796730176193858 0.0547397209830003 0.03966987882304614
0.01727807018599966 0.03941736566032554 0.05449873018801446
0.031558475733884 0.01771115080495888 0.05942412955649992
0.02649961792173864 0.05567376497320316 0.03383968705306255
0.02610937774659648 0.06008030482578293 0.02638822516935856
0.06102259377615829 0.02306829052541938 0.02686113837411916
0.01699839278169326 0.03158364147794521 0.05962318457286346
0.006921799129701407 0.00675609002303236 0.06846052960948557
0.01703056207243367 0.01718412448909836 0.06537953746353702
0.006931560823493213 0.06851256226545045 0.007170824069181528
0.05939659190485147 0.01721976028027785 0.03320305903972942
2 6 0 16
231
232
233
234
235
236
237
238
239
240
241
242
243
244
245
246
0.05825479752724626 0 0.01377281341648669
0.0433441108475432 0 0.02886213617461611
0.03642533843424409 0 0.03823622682165194
0.02976922751395733 0 0.04755640998675401
0.01800063582292006 0 0.05450741466745361
0.04878063308928532 0 0.01898059041386845
0.009636549150740657 0 0.05833047199773096
0.0458881348086803 0 0.03859019368420334
0.05248216442194645 0 0.02924176558180842
0.04961226497896276 0 0.0107632570903616
0.04028605021338684 0 0.04579907420127049
0.05497255001230929 0 0.005996166605797874
0.02660094115951426 0 0.05508753502969425
0.05751271132591061 0 0.02252229348640242
0.0621695236780412 0 0.006256216974079104
0.04679649276907254 0 0.005103863549005411
2 7 0 16
247
248
249
250
251
252
253
254
255
256
257
258
259
260
261
262
0 0.05825479752724624 0.0137728134164867
0 0.0433441108475432 0.02886213617461611
0 0.03642533843424409 0.03823622682165194
0 0.02976922751395733 0.04755640998675401
0 0.01800063582292005 0.05450741466745361
0 0.04878063308928532 0.01898059041386845
0 0.009636549150740664 0.05833047199773096
0 0.04588813480868028 0.03859019368420336
0 0.05248216442194643 0.02924176558180844
0 0.04961226497896274 0.01076325709036161
0 0.04028605021338681 0.04579907420127052
0 0.05497255001230929 0.005996166605797881
0 0.02660094115951423 0.05508753502969425
0 0.05751271132591059 0.02252229348640244
0 0.0621695236780412 0.006256216974079111
0 0.04679649276907253 0.005103863549005411
2 8 0 19
263
264
265
266
267
268
269
270
271
272
273
274
275
276
277
278
279
280
281
0.02238015330383906 0.05569999850974441 0
0.05569999850974441 0.02238015330383905 0
0.03930757555020812 0.03049896252229608 0
0.03032324168091284 0.03922894003469765 0
0.007856087591473111 0.05539285714285713 0
0.05539285714285713 0.007856087591473111 0
0.04265153089428941 0.04266540022655693 0
0.01897813157840048 0.04581726264507559 0
0.04581726264507559 0.0189781315784005 0
0.05012966506336438 0.03106752908688366 0
0.03103593072460853 0.05011887069949056 0
0.05985975956983149 0.01392432314620248 0
0.01392432314620249 0.05985975956983149 0
0.008269925980351082 0.04762118417996973 0
0.04762118417996974 0.008269925980351082 0
0.05260045680425281 0.01435472325928805 0
0.01435472325928805 0.05260045680425281 0
0.06246633672846492 0.006514877765090306 0
0.006514877765090302 0.06246633672846491 0
2 9 0 27
282
283
284
285
286
287
288
289
290
291
292
293
294
295
296
297
298
299
300
301
302
303
304
305
306
307
308
0.008512665662673051 0.03037412276006029 0.03368536610100746
0.03269111810263146 0.02508477718734164 0.009444222209803755
0.03057160386455118 0.008297496222681309 0.03348474018184435
0.01567608639080868 0.03835663744447887 0.009051646014939687
0.008208309190224652 0.01534444835972458 0.04683032494460602
0.03920173546296013 0.0089302144367529 0.01517312301815385
0.009074775177166665 0.02352715031178813 0.04121840091942498
0.01753795076670103 0.01712303730818407 0.04253172753000594
0.0235766750652277 0.008889427613345604 0.04121503944481806
0.02473576009153254 0.03291815232662626 0.009657840745616013
0.02691963262776784 0.0275748337151228 0.01873577080271079
0.03437208967381818 0.01800764602431994 0.01917879959956701
0.02675961420958912 0.02203955041028962 0.02744706778492356
0.02108491154514839 0.02849436849220096 0.02607926378323747
0.00832186130592329 0.03562579747882045 0.02503205339284421
0.008326752797001926 0.03918876979790872 0.0156491985356814
0.01734507976158145 0.03449636617001291 0.01978200492366618
0.01496110773087073 0.00885888359361103 0.0469215737642048
0.006720173327052746 0.007135038251393102 0.04937206710933183
0.03594142120595148 0.008509070170988987 0.02428811343453596
0.02561674125934893 0.01628071036194011 0.03532232303957714
0.03829633893879875 0.01592038513089469 0.008743850770120243
0.01805807275683646 0.02509700700937306 0.03434224601316656
0.007347655475087928 0.04090799024555365 0.007350741780369525
0.04087230073000231 0.0075197486952481 0.007434145541842086
0.03163582195956659 0.01464141223674074 0.02812458830895834
0.01457059310789884 0.03162834276621345 0.02819858208799293
2 10 0 13
309
310
311
312
313
314
315
316
317
318
319
320
321
0.02352620369505773 0 0.02823768308551476
0.008684997620809636 0 0.01504285714285711
0.02445501404531637 0 0.01015002128042331
0.009341778863594262 0 0.03351120105403643
0.008538194599369216 0 0.02456000273354269
0.01780880956308917 0 0.0191874517267216
0.0149455059151044 0 0.008607733592209618
0.02801628158128855 0 0.01955662287343414
0.01833432030959441 0 0.0356623641326972
0.03258660094470665 0 0.0120491189694427
0.006815386421468523 0 0.006735832432727627
0.01556112509546625 0 0.02833865987731975
0.01148169745999531 0 0.04044739810724261
2 11 0 13
322
323
324
325
326
327
328
329
330
331
332
333
334
0 0.02352620369505773 0.02823768308551476
0 0.008684997620809636 0.01504285714285711
0 0.02445501404531637 0.01015002128042331
0 0.009341778863594261 0.03351120105403643
0 0.008538194599369215 0.02456000273354269
0 0.01780880956308917 0.0191874517267216
0 0.0149455059151044 0.008607733592209618
0 0.02801628158128855 0.01955662287343414
0 0.01833432030959441 0.0356623641326972
0 0.03258660094470665 0.0120491189694427
0 0.006815386421468523 0.006735832432727627
0 0.01556112509546625 0.02833865987731975
0 0.01148169745999531 0.04044739810724261
2 12 0 9
335
336
337
338
339
340
341
342
343
0.008880477982628738 0.01588822226939897 0
0.02550903361884809 0.01868401398959657 0
0.01133109745793852 0.02875024855832654 0
0.02534182653860548 0.008203109612550101 0
0.01636823372461977 0.009801465401559134 0
0.0163813855839385 0.02112858631386841 0
0.007647316471924889 0.007647316471924889 0
0.02091258227239956 0.02713998182451226 0
0.03174790731139075 0.01171898388307183 0
3 0 0 0
3 1 0 22
344
345
346
347
348
349
350
351
352
353
354
355
356
357
358
359
360
361
362
363
364
365
0.0136748138213013 0.05258531583348262 0.01445774076184955
0.05271029867892838 0.01350436196673318 0.01426511166576004
0.02433604568614984 0.04149292110264711 0.03023938373352736
0.04671578920956339 0.01764430629128626 0.02658311939515386
0.04337110435006054 0.03061888564223239 0.01974728052281973
0.03310517778529407 0.041855809878457 0.01817761992248903
0.03679038076586189 0.023876091084427 0.0365766368828427
0.01284948716675617 0.04828247188037149 0.02738109898978464
0.04216071687782674 0.01223438468112936 0.03738574890072813
0.0174449459895865 0.03703079748614245 0.04018922317185435
0.03500357863409452 0.03422848731534878 0.02897363735974858
0.05154339055460738 0.02575693474777563 0.0114370146618738
0.02711508751368156 0.02490735402486036 0.04439393492079753
0.02372017663669269 0.04937414492415559 0.02080474487777289
0.01679216682751951 0.02868247528692931 0.04831977204582884
0.03322860752555955 0.01477540091802857 0.0447276581119582
0.02435059194629547 0.01322988391904685 0.05176383111032092
0.0123043213841696 0.01298745859781721 0.05657979338481867
0.04298602437672312 0.03968566006010307 0.01259610750409913
0.0281641453173414 0.03419107733529556 0.03797786440837269
0.00878745654245848 0.05923334886739968 0.008740421046374932
0.05921748652031296 0.00870379924582178 0.008652552416554497
3 2 0 6
366
367
368
369
370
371
0.01386735388722417 0.01386735388722416 0.02307100445041249
0.02268849752467792 0.01348722544733136 0.01246730035701887
0.01326919568000732 0.0233305307421412 0.01309478355162973
0.01089129287985951 0.0108912928798595 0.01092640784237624
0.01049012012676123 0.01396887847794761 0.03403987648499263
0.01957810038969203 0.009119000661274846 0.03100449270124832
$EndNodes
$Elements
46 2227 1 2227
0 1 15 1
1887 1 
0 2 15 1
1888 2 
0 3 15 1
1889 3 
0 4 15 1
1890 4 
0 5 15 1
1891 5 
0 6 15 1
1892 6 
0 7 15 1
1893 7 
0 8 15 1
1894 8 
0 9 15 1
1895 9 
0 10 15 1
1896 10 
0 11 15 1
1897 372 
0 12 15 1
1898 373 
0 50 15 1
1899 374 
1 1 1 10
1900 2 11 
1901 11 12 
1902 12 13 
1903 13 14 
1904 14 15 
1905 15 16 
1906 16 17 
1907 17 18 
1908 18 19 
1909 19 3 
1 2 1 10
1910 2 20 
1911 20 21 
1912 21 22 
1913 22 23 
1914 23 24 
1915 24 25 
1916 25 26 
1917 26 27 
1918 27 28 
1919 28 4 
1 3 1 10
1920 3 29 
1921 29 30 
1922 30 31 
1923 31 32 
1924 32 33 
1925 33 34 
1926 34 35 
1927 35 36 
1928 36 37 
1929 37 4 
1 4 1 6
1930 5 38 
1931 38 39 
1932 39 40 
1933 40 41 
1934 41 42 
1935 42 6 
1 5 1 7
1936 7 43 
1937 43 44 
1938 44 45 
1939 45 46 
1940 46 47 
1941 47 48 
1942 48 5 
1 6 1 7
1943 7 49 
1944 49 50 
1945 50 51 
1946 51 52 
1947 52 53 
1948 53 54 
1949 54 6 
1 7 1 3
1950 8 55 
1951 55 56 
1952 56 5 
1 8 1 3
1953 9 57 
1954 57 58 
1955 58 6 
1 9 1 2
1956 10 59 
1957 59 7 
1 10 1 4
1958 1 60 
1959 60 61 
1960 61 62 
1961 62 6 
1 11 1 4
1962 1 63 
1963 63 64 
1964 64 65 
1965 65 5 
1 12 1 5
1966 1 66 
1967 66 67 
1968 67 68 
1969 68 69 
1970 69 7 
1 13 1 10
1971 8 70 
1972 70 71 
1973 71 72 
1974 72 73 
1975 73 74 
1976 74 75 
1977 75 76 
1978 76 77 
1979 77 78 
1980 78 9 
1 14 1 10
1981 8 79 
1982 79 80 
1983 80 81 
1984 81 82 
1985 82 83 
1986 83 84 
1987 84 85 
1988 85 86 
1989 86 87 
1990 87 10 
1 15 1 10
1991 9 88 
1992 88 89 
1993 89 90 
1994 90 91 
1995 91 92 
1996 92 93 
1997 93 94 
1998 94 95 
1999 95 96 
2000 96 10 
1 16 1 1
2001 8 2 
1 17 1 1
2002 9 3 
1 18 1 1
2003 10 4 
2 1 2 164
1 11 159 2 
2 2 159 20 
3 3 164 19 
4 29 164 3 
5 28 136 4 
6 4 136 37 
7 12 144 11 
8 144 159 11 
9 13 123 12 
10 123 144 12 
11 14 100 13 
12 100 123 13 
13 15 109 14 
14 14 109 100 
15 16 97 15 
16 97 109 15 
17 17 140 16 
18 16 140 97 
19 18 106 17 
20 106 140 17 
21 19 161 18 
22 18 161 106 
23 108 161 19 
24 19 164 108 
25 20 105 21 
26 20 159 105 
27 21 163 22 
28 105 163 21 
29 22 104 23 
30 22 163 104 
31 23 132 24 
32 104 132 23 
33 24 98 25 
34 24 132 98 
35 25 134 26 
36 98 134 25 
37 26 107 27 
38 26 134 107 
39 27 135 28 
40 107 135 27 
41 135 136 28 
42 30 162 29 
43 29 162 108 
44 108 164 29 
45 31 102 30 
46 102 162 30 
47 32 128 31 
48 31 128 102 
49 33 99 32 
50 99 128 32 
51 34 137 33 
52 33 137 99 
53 35 101 34 
54 101 137 34 
55 36 138 35 
56 35 138 101 
57 37 103 36 
58 103 138 36 
59 37 136 103 
60 97 110 109 
61 97 111 110 
62 97 140 111 
63 132 133 98 
64 133 154 98 
65 98 154 134 
66 99 143 128 
67 137 149 99 
68 99 149 143 
69 109 141 100 
70 100 124 123 
71 100 141 124 
72 101 150 137 
73 138 151 101 
74 101 151 150 
75 128 129 102 
76 129 130 102 
77 130 162 102 
78 103 136 135 
79 135 158 103 
80 103 158 138 
81 127 160 104 
82 104 163 127 
83 104 146 132 
84 104 160 146 
85 125 127 105 
86 105 144 125 
87 127 163 105 
88 105 159 144 
89 130 145 106 
90 106 161 130 
91 106 145 140 
92 107 155 122 
93 122 158 107 
94 134 155 107 
95 107 158 135 
96 130 161 108 
97 108 162 130 
98 110 141 109 
99 111 112 110 
100 112 113 110 
101 113 141 110 
102 111 156 112 
103 140 145 111 
104 145 156 111 
105 112 114 113 
106 112 115 114 
107 112 156 115 
108 114 142 113 
109 113 152 141 
110 142 152 113 
111 115 116 114 
112 116 117 114 
113 117 142 114 
114 115 139 116 
115 115 153 139 
116 115 156 153 
117 116 118 117 
118 116 119 118 
119 116 139 119 
120 118 147 117 
121 117 148 142 
122 147 148 117 
123 119 120 118 
124 120 121 118 
125 121 147 118 
126 119 150 120 
127 139 149 119 
128 149 150 119 
129 120 122 121 
130 120 151 122 
131 150 151 120 
132 122 155 121 
133 121 154 147 
134 121 155 154 
135 151 158 122 
136 124 125 123 
137 125 144 123 
138 124 126 125 
139 124 152 126 
140 141 152 124 
141 126 127 125 
142 126 160 127 
143 152 157 126 
144 157 160 126 
145 128 143 129 
146 129 131 130 
147 129 153 131 
148 143 153 129 
149 131 145 130 
150 131 156 145 
151 153 156 131 
152 132 146 133 
153 146 148 133 
154 133 148 147 
155 147 154 133 
156 154 155 134 
157 137 150 149 
158 138 158 151 
159 143 149 139 
160 139 153 143 
161 148 157 142 
162 142 157 152 
163 146 157 148 
164 146 160 157 
2 2 2 20
2004 20 8 2 
2005 4 10 28 
2006 20 79 8 
2007 28 10 87 
2008 21 79 20 
2009 22 81 21 
2010 21 80 79 
2011 81 80 21 
2012 23 82 22 
2013 82 81 22 
2014 24 83 23 
2015 83 82 23 
2016 25 84 24 
2017 84 83 24 
2018 26 85 25 
2019 85 84 25 
2020 27 86 26 
2021 86 85 26 
2022 28 86 27 
2023 28 87 86 
2 3 2 20
2024 3 29 9 
2025 96 4 10 
2026 96 37 4 
2027 9 29 88 
2028 88 29 30 
2029 89 30 31 
2030 88 30 89 
2031 31 32 91 
2032 89 31 90 
2033 90 31 91 
2034 91 32 33 
2035 92 33 34 
2036 91 33 92 
2037 34 35 94 
2038 92 34 93 
2039 93 34 94 
2040 35 36 95 
2041 94 35 95 
2042 95 36 37 
2043 95 37 96 
2 4 2 20
165 70 8 2 
166 70 2 11 
167 9 19 3 
168 9 78 19 
169 71 11 12 
170 71 70 11 
171 72 12 13 
172 72 71 12 
173 14 72 13 
174 15 73 14 
175 73 72 14 
176 16 74 15 
177 74 73 15 
178 17 75 16 
179 75 74 16 
180 18 76 17 
181 76 75 17 
182 19 77 18 
183 77 76 18 
184 78 77 19 
2 5 2 160
185 70 197 8 
186 8 197 79 
187 9 229 78 
188 88 229 9 
189 87 227 10 
190 10 227 96 
191 71 194 70 
192 194 197 70 
193 72 173 71 
194 173 194 71 
195 73 208 72 
196 72 208 173 
197 74 166 73 
198 166 208 73 
199 75 177 74 
200 74 177 166 
201 76 168 75 
202 168 177 75 
203 77 198 76 
204 76 198 168 
205 78 175 77 
206 175 198 77 
207 78 229 175 
208 79 171 80 
209 79 197 171 
210 80 196 81 
211 171 196 80 
212 81 170 82 
213 81 196 170 
214 82 203 83 
215 170 203 82 
216 83 167 84 
217 83 203 167 
218 84 204 85 
219 167 204 84 
220 85 174 86 
221 85 204 174 
222 86 214 87 
223 174 214 86 
224 214 227 87 
225 89 213 88 
226 213 229 88 
227 90 172 89 
228 172 213 89 
229 91 200 90 
230 90 200 172 
231 92 165 91 
232 165 200 91 
233 93 205 92 
234 92 205 165 
235 94 169 93 
236 169 205 93 
237 95 206 94 
238 94 206 169 
239 96 176 95 
240 176 206 95 
241 96 227 176 
242 165 220 200 
243 205 219 165 
244 219 220 165 
245 177 178 166 
246 178 179 166 
247 179 208 166 
248 203 216 167 
249 167 215 204 
250 167 216 215 
251 168 210 177 
252 198 199 168 
253 199 210 168 
254 169 221 205 
255 206 226 169 
256 169 226 221 
257 196 230 170 
258 170 217 203 
259 170 230 217 
260 194 195 171 
261 171 197 194 
262 195 196 171 
263 200 201 172 
264 201 202 172 
265 202 213 172 
266 173 195 194 
267 173 212 195 
268 208 212 173 
269 174 222 193 
270 193 228 174 
271 204 222 174 
272 174 228 214 
273 175 202 198 
274 175 213 202 
275 175 229 213 
276 176 228 206 
277 176 227 214 
278 214 228 176 
279 177 210 178 
280 178 180 179 
281 178 181 180 
282 178 210 181 
283 180 211 179 
284 179 212 208 
285 211 212 179 
286 181 182 180 
287 182 183 180 
288 183 211 180 
289 181 209 182 
290 181 218 209 
291 210 218 181 
292 182 184 183 
293 182 185 184 
294 182 209 185 
295 184 188 183 
296 188 190 183 
297 190 211 183 
298 185 186 184 
299 186 207 184 
300 184 207 188 
301 185 187 186 
302 185 189 187 
303 185 209 189 
304 187 191 186 
305 191 192 186 
306 192 207 186 
307 189 219 187 
308 187 221 191 
309 219 221 187 
310 188 217 190 
311 207 216 188 
312 216 217 188 
313 209 223 189 
314 189 220 219 
315 189 223 220 
316 190 225 211 
317 217 230 190 
318 190 230 225 
319 191 193 192 
320 191 226 193 
321 221 226 191 
322 193 222 192 
323 192 215 207 
324 192 222 215 
325 193 226 206 
326 206 228 193 
327 195 225 196 
328 212 225 195 
329 225 230 196 
330 198 202 199 
331 202 224 199 
332 199 218 210 
333 199 224 218 
334 200 220 201 
335 201 224 202 
336 220 223 201 
337 223 224 201 
338 203 217 216 
339 215 222 204 
340 205 221 219 
341 215 216 207 
342 218 223 209 
343 211 225 212 
344 218 224 223 
2 6 2 52
2044 48 246 5 
2045 5 246 56 
2046 7 237 43 
2047 59 237 7 
2048 55 245 8 
2049 8 245 79 
2050 59 10 87 
2051 43 235 44 
2052 43 237 235 
2053 44 234 45 
2054 44 243 234 
2055 235 243 44 
2056 45 233 46 
2057 45 234 233 
2058 46 232 47 
2059 46 233 232 
2060 47 236 48 
2061 232 236 47 
2062 236 240 48 
2063 240 246 48 
2064 56 242 55 
2065 242 245 55 
2066 56 246 242 
2067 87 237 59 
2068 79 231 80 
2069 79 245 231 
2070 80 244 81 
2071 231 244 80 
2072 81 239 82 
2073 81 244 239 
2074 82 238 83 
2075 82 239 238 
2076 83 241 84 
2077 238 241 83 
2078 84 243 85 
2079 84 241 234 
2080 234 243 84 
2081 85 243 86 
2082 86 237 87 
2083 235 237 86 
2084 86 243 235 
2085 231 240 236 
2086 236 244 231 
2087 231 242 240 
2088 231 245 242 
2089 233 238 232 
2090 232 239 236 
2091 238 239 232 
2092 234 241 233 
2093 233 241 238 
2094 239 244 236 
2095 242 246 240 
2 7 2 52
2096 54 262 6 
2097 6 262 58 
2098 7 253 49 
2099 59 253 7 
2100 57 261 9 
2101 9 261 88 
2102 10 96 59 
2103 49 251 50 
2104 49 253 251 
2105 50 250 51 
2106 50 259 250 
2107 251 259 50 
2108 51 249 52 
2109 51 250 249 
2110 52 248 53 
2111 52 249 248 
2112 53 252 54 
2113 248 252 53 
2114 252 256 54 
2115 256 262 54 
2116 58 258 57 
2117 258 261 57 
2118 58 262 258 
2119 96 253 59 
2120 88 247 89 
2121 88 261 247 
2122 89 260 90 
2123 247 260 89 
2124 90 255 91 
2125 90 260 255 
2126 91 254 92 
2127 91 255 254 
2128 92 257 93 
2129 254 257 92 
2130 93 259 94 
2131 93 257 250 
2132 250 259 93 
2133 94 259 95 
2134 95 253 96 
2135 251 253 95 
2136 95 259 251 
2137 247 256 252 
2138 252 260 247 
2139 247 258 256 
2140 247 261 258 
2141 249 254 248 
2142 248 255 252 
2143 254 255 248 
2144 250 257 249 
2145 249 257 254 
2146 255 260 252 
2147 258 262 256 
2 8 2 58
345 38 277 5 
346 5 277 56 
347 6 276 42 
348 58 276 6 
349 55 280 8 
350 8 280 70 
351 9 281 57 
352 78 281 9 
353 39 271 38 
354 271 277 38 
355 40 265 39 
356 265 271 39 
357 41 266 40 
358 40 266 265 
359 42 270 41 
360 41 270 266 
361 42 276 270 
362 56 268 55 
363 268 280 55 
364 56 277 268 
365 57 267 58 
366 57 281 267 
367 267 276 58 
368 70 274 71 
369 70 280 274 
370 71 264 72 
371 71 274 264 
372 72 272 73 
373 264 272 72 
374 73 269 74 
375 73 272 269 
376 74 269 75 
377 75 273 76 
378 269 273 75 
379 76 263 77 
380 76 273 263 
381 77 275 78 
382 263 275 77 
383 275 281 78 
384 263 273 270 
385 270 279 263 
386 263 279 275 
387 271 272 264 
388 264 278 271 
389 274 278 264 
390 266 269 265 
391 269 272 265 
392 265 272 271 
393 266 273 269 
394 270 273 266 
395 275 279 267 
396 267 281 275 
397 267 279 276 
398 268 278 274 
399 274 280 268 
400 277 278 268 
401 276 279 270 
402 271 278 277 
2 9 2 72
403 38 306 5 
404 5 306 48 
405 6 305 42 
406 54 305 6 
407 43 300 7 
408 7 300 49 
409 39 303 38 
410 303 306 38 
411 40 283 39 
412 283 303 39 
413 41 291 40 
414 40 291 283 
415 42 285 41 
416 285 291 41 
417 42 305 285 
418 44 299 43 
419 299 300 43 
420 45 290 44 
421 290 299 44 
422 46 284 45 
423 284 290 45 
424 47 301 46 
425 46 301 284 
426 48 287 47 
427 287 301 47 
428 48 306 287 
429 49 286 50 
430 49 300 286 
431 50 288 51 
432 286 288 50 
433 51 282 52 
434 51 288 282 
435 52 296 53 
436 282 296 52 
437 53 297 54 
438 296 297 53 
439 297 305 54 
440 288 304 282 
441 282 308 296 
442 304 308 282 
443 291 292 283 
444 292 293 283 
445 293 303 283 
446 284 302 290 
447 301 307 284 
448 284 307 302 
449 285 298 291 
450 297 298 285 
451 285 305 297 
452 286 289 288 
453 286 299 289 
454 286 300 299 
455 293 301 287 
456 287 303 293 
457 287 306 303 
458 289 304 288 
459 289 299 290 
460 290 302 289 
461 302 304 289 
462 291 298 292 
463 292 294 293 
464 292 295 294 
465 292 298 295 
466 294 307 293 
467 293 307 301 
468 295 304 294 
469 294 304 302 
470 302 307 294 
471 298 308 295 
472 295 308 304 
473 296 298 297 
474 296 308 298 
2 10 2 40
2148 63 319 1 
2149 1 319 66 
2150 48 65 5 
2151 7 69 43 
2152 43 321 44 
2153 69 321 43 
2154 44 317 45 
2155 44 321 317 
2156 45 309 46 
2157 45 317 309 
2158 46 316 47 
2159 309 316 46 
2160 47 318 48 
2161 316 318 47 
2162 48 318 65 
2163 64 315 63 
2164 315 319 63 
2165 65 311 64 
2166 311 315 64 
2167 65 318 311 
2168 66 310 67 
2169 66 319 310 
2170 67 313 68 
2171 310 313 67 
2172 68 312 69 
2173 68 313 312 
2174 312 321 69 
2175 314 316 309 
2176 309 320 314 
2177 317 320 309 
2178 310 314 313 
2179 310 315 314 
2180 310 319 315 
2181 314 315 311 
2182 311 316 314 
2183 311 318 316 
2184 313 320 312 
2185 312 320 317 
2186 317 321 312 
2187 314 320 313 
2 11 2 40
2188 60 332 1 
2189 1 332 66 
2190 62 6 54 
2191 69 49 7 
2192 49 334 50 
2193 69 334 49 
2194 50 330 51 
2195 50 334 330 
2196 51 322 52 
2197 51 330 322 
2198 52 329 53 
2199 322 329 52 
2200 53 331 54 
2201 329 331 53 
2202 54 331 62 
2203 61 328 60 
2204 328 332 60 
2205 62 324 61 
2206 324 328 61 
2207 62 331 324 
2208 66 323 67 
2209 66 332 323 
2210 67 326 68 
2211 323 326 67 
2212 68 325 69 
2213 68 326 325 
2214 325 334 69 
2215 327 329 322 
2216 322 333 327 
2217 330 333 322 
2218 323 327 326 
2219 323 328 327 
2220 323 332 328 
2221 327 328 324 
2222 324 329 327 
2223 324 331 329 
2224 326 333 325 
2225 325 333 330 
2226 330 334 325 
2227 327 333 326 
2 12 2 30
475 1 341 60 
476 63 341 1 
477 65 5 38 
478 6 62 42 
479 39 343 38 
480 38 343 65 
481 40 336 39 
482 336 343 39 
483 41 342 40 
484 40 342 336 
485 42 337 41 
486 337 342 41 
487 62 337 42 
488 60 335 61 
489 60 341 335 
490 61 337 62 
491 335 337 61 
492 64 339 63 
493 339 341 63 
494 65 338 64 
495 338 339 64 
496 65 343 338 
497 335 340 337 
498 339 340 335 
499 335 341 339 
500 336 339 338 
501 338 343 336 
502 336 340 339 
503 336 342 340 
504 340 342 337 
3 0 4 490
505 89 172 213 162 
506 104 163 196 127 
507 192 121 118 120 
508 193 226 206 151 
509 193 174 222 122 
510 193 222 192 122 
511 164 29 229 108 
512 126 225 125 127 
513 161 108 175 130 
514 104 170 23 132 
515 160 225 126 127 
516 78 9 229 164 
517 94 95 206 138 
518 121 192 122 120 
519 146 170 104 132 
520 105 195 125 144 
521 119 150 191 120 
522 131 130 202 129 
523 9 88 229 164 
524 164 229 19 108 
525 171 105 20 159 
526 187 119 139 149 
527 118 186 119 116 
528 135 228 103 158 
529 187 119 149 150 
530 160 104 146 230 
531 191 192 186 120 
532 126 225 211 212 
533 118 119 186 120 
534 192 121 222 215 
535 117 184 118 116 
536 225 211 190 126 
537 126 124 125 212 
538 115 139 185 116 
539 127 195 125 105 
540 215 192 121 207 
541 131 156 218 145 
542 192 186 118 207 
543 119 187 186 191 
544 105 196 195 171 
545 157 211 152 126 
546 185 119 187 186 
547 146 217 170 132 
548 190 157 146 160 
549 184 118 186 207 
550 119 185 139 116 
551 121 222 155 122 
552 213 229 29 108 
553 184 185 186 116 
554 103 206 138 158 
555 133 98 154 216 
556 183 211 157 190 
557 184 117 188 183 
558 149 150 137 221 
559 206 226 101 151 
560 159 2 20 197 
561 214 135 27 107 
562 94 206 169 138 
563 101 138 206 151 
564 152 180 179 211 
565 206 103 228 158 
566 125 195 225 212 
567 179 208 124 212 
568 213 162 172 202 
569 147 133 188 148 
570 108 229 19 175 
571 135 27 28 214 
572 209 156 153 115 
573 104 170 230 196 
574 225 160 190 230 
575 150 137 221 101 
576 118 121 207 147 
577 209 218 156 181 
578 105 20 21 171 
579 189 139 153 143 
580 202 198 175 130 
581 31 32 200 128 
582 116 184 185 182 
583 217 146 133 132 
584 143 219 149 99 
585 139 189 149 143 
586 161 198 106 130 
587 112 181 156 111 
588 115 185 209 182 
589 155 222 215 204 
590 157 146 148 190 
591 115 116 182 114 
592 207 117 118 147 
593 117 148 183 142 
594 195 125 173 212 
595 184 117 207 188 
596 117 183 114 142 
597 133 216 188 217 
598 114 182 115 112 
599 183 148 188 190 
600 151 193 226 191 
601 117 147 188 148 
602 203 98 24 132 
603 223 153 189 209 
604 216 207 147 188 
605 139 185 187 189 
606 181 182 180 112 
607 111 210 140 97 
608 154 147 133 216 
609 198 161 175 130 
610 103 176 228 135 
611 183 182 114 180 
612 16 15 97 177 
613 165 32 33 99 
614 23 22 170 104 
615 177 15 97 109 
616 220 143 128 99 
617 97 110 178 109 
618 147 215 207 216 
619 109 166 14 100 
620 121 154 215 147 
621 166 14 15 109 
622 140 17 16 168 
623 76 106 198 168 
624 100 141 179 124 
625 141 178 110 109 
626 144 173 71 194 
627 99 33 205 137 
628 114 142 180 113 
629 177 97 178 109 
630 166 177 178 109 
631 15 177 166 109 
632 15 177 74 166 
633 97 140 16 177 
634 178 113 141 110 
635 100 208 13 123 
636 118 184 117 207 
637 123 100 208 124 
638 33 34 205 137 
639 16 15 177 74 
640 167 215 154 216 
641 208 13 14 100 
642 223 153 131 129 
643 219 149 189 143 
644 112 180 181 178 
645 165 33 205 99 
646 178 112 113 110 
647 211 157 190 126 
648 97 210 140 177 
649 178 210 97 177 
650 111 110 178 97 
651 169 137 34 101 
652 200 165 220 128 
653 210 111 178 97 
654 168 140 210 177 
655 34 35 169 101 
656 113 180 112 178 
657 168 16 140 177 
658 208 14 166 100 
659 185 115 116 182 
660 111 178 181 210 
661 113 180 114 112 
662 72 14 208 13 
663 141 179 124 152 
664 205 92 33 165 
665 34 92 33 205 
666 220 201 200 128 
667 128 165 220 99 
668 98 167 203 83 
669 189 153 223 220 
670 203 24 98 83 
671 221 187 150 191 
672 145 111 210 140 
673 192 118 121 207 
674 187 149 219 221 
675 222 155 174 204 
676 148 183 157 190 
677 203 167 98 216 
678 24 23 203 132 
679 142 183 114 180 
680 71 11 12 144 
681 179 141 113 152 
682 208 166 179 100 
683 143 220 219 99 
684 134 85 107 204 
685 187 119 185 139 
686 165 205 219 99 
687 140 106 17 168 
688 216 133 203 217 
689 100 179 208 124 
690 79 21 20 171 
691 203 23 24 83 
692 182 114 180 112 
693 113 180 179 152 
694 130 202 198 199 
695 137 34 205 169 
696 90 31 91 200 
697 104 170 146 230 
698 220 189 153 143 
699 82 22 170 23 
700 142 180 113 152 
701 33 91 165 92 
702 165 219 220 99 
703 18 76 17 106 
704 91 33 165 32 
705 219 149 205 221 
706 91 31 32 200 
707 186 118 184 116 
708 103 176 135 136 
709 154 98 134 167 
710 145 218 131 199 
711 204 215 154 167 
712 220 219 189 143 
713 147 154 215 216 
714 136 135 28 227 
715 147 133 216 188 
716 170 217 146 230 
717 186 185 119 116 
718 101 35 169 138 
719 91 32 165 200 
720 218 156 181 210 
721 147 207 117 188 
722 137 205 149 221 
723 201 129 102 128 
724 200 102 31 128 
725 167 154 98 216 
726 204 154 134 167 
727 144 195 173 194 
728 83 203 23 82 
729 148 188 117 183 
730 26 85 107 134 
731 159 171 194 197 
732 142 148 183 157 
733 149 189 187 219 
734 79 80 21 171 
735 199 131 202 224 
736 106 76 17 168 
737 15 73 166 74 
738 15 73 14 166 
739 210 199 145 168 
740 224 131 202 129 
741 176 206 103 228 
742 170 217 203 132 
743 177 75 16 74 
744 90 89 31 102 
745 149 187 150 221 
746 187 139 189 149 
747 22 82 170 81 
748 206 228 193 158 
749 30 31 89 102 
750 27 26 86 107 
751 75 16 17 168 
752 217 133 203 132 
753 207 121 215 147 
754 221 137 205 169 
755 70 8 2 197 
756 191 186 119 120 
757 226 221 150 191 
758 111 181 156 210 
759 94 169 35 138 
760 75 16 168 177 
761 127 196 195 105 
762 169 221 137 101 
763 166 73 14 208 
764 85 174 107 204 
765 14 72 208 73 
766 26 85 86 107 
767 162 30 88 89 
768 75 17 76 168 
769 34 94 169 35 
770 88 213 162 89 
771 134 107 155 204 
772 199 145 218 210 
773 31 90 102 200 
774 140 210 145 168 
775 86 214 27 107 
776 172 102 90 200 
777 34 92 205 93 
778 159 194 70 197 
779 102 90 89 172 
780 77 19 161 18 
781 101 169 226 206 
782 29 30 88 162 
783 154 155 121 215 
784 174 86 85 107 
785 187 119 150 191 
786 79 20 8 197 
787 160 190 157 126 
788 2 8 20 197 
789 34 205 169 93 
790 223 129 201 220 
791 26 25 85 134 
792 125 225 126 212 
793 174 107 122 158 
794 204 134 84 167 
795 134 155 154 204 
796 78 19 9 164 
797 29 9 164 88 
798 9 29 164 3 
799 202 224 129 201 
800 103 96 95 176 
801 3 9 19 164 
802 214 135 176 227 
803 36 35 138 95 
804 140 145 106 168 
805 192 118 186 120 
806 218 223 131 224 
807 214 86 174 107 
808 176 228 135 214 
809 95 37 103 36 
810 190 146 217 230 
811 134 84 85 204 
812 101 169 221 226 
813 101 221 150 226 
814 214 27 28 86 
815 84 85 25 134 
816 94 34 169 93 
817 138 35 94 95 
818 95 138 36 103 
819 199 218 131 224 
820 20 171 159 197 
821 107 174 155 204 
822 146 190 160 230 
823 158 193 206 151 
824 10 28 87 227 
825 105 21 163 80 
826 171 20 79 197 
827 229 78 19 175 
828 214 28 135 227 
829 136 176 135 227 
830 96 176 136 227 
831 224 223 131 129 
832 96 4 136 37 
833 213 29 88 162 
834 215 154 155 204 
835 22 21 81 163 
836 129 224 223 201 
837 87 214 28 86 
838 225 195 125 127 
839 169 101 138 206 
840 37 95 103 96 
841 88 229 29 213 
842 190 160 225 126 
843 155 222 121 215 
844 163 21 81 80 
845 80 105 21 171 
846 28 214 87 227 
847 222 121 192 122 
848 176 103 96 136 
849 103 37 96 136 
850 19 78 229 164 
851 164 229 29 88 
852 77 175 198 161 
853 81 80 196 163 
854 108 19 161 175 
855 213 175 229 108 
856 108 29 213 162 
857 158 122 193 151 
858 158 206 138 151 
859 150 101 226 151 
860 163 196 127 105 
861 195 225 196 127 
862 192 122 191 193 
863 192 191 122 120 
864 151 191 122 193 
865 151 122 191 120 
866 150 191 151 226 
867 151 191 150 120 
868 193 174 158 228 
869 158 174 193 122 
870 108 175 202 213 
871 202 175 108 130 
872 202 162 108 213 
873 108 162 202 130 
874 131 130 199 202 
875 131 199 130 145 
876 104 160 196 230 
877 104 196 160 127 
878 225 196 160 230 
879 225 160 196 127 
880 206 95 103 138 
881 206 103 95 176 
882 156 145 210 218 
883 210 145 156 111 
884 105 196 80 163 
885 105 80 196 171 
886 117 116 182 184 
887 182 116 117 114 
888 182 183 117 184 
889 117 183 182 114 
890 122 155 174 222 
891 122 174 155 107 
892 126 212 152 124 
893 126 152 212 211 
894 179 152 212 124 
895 179 212 152 211 
896 175 77 19 161 
897 175 19 77 78 
898 159 2 70 11 
899 70 2 159 197 
900 98 133 203 216 
901 98 203 133 132 
902 106 168 199 198 
903 199 168 106 145 
904 199 130 106 198 
905 106 130 199 145 
906 112 111 178 181 
907 178 111 112 110 
908 152 157 183 211 
909 183 157 152 142 
910 183 180 152 211 
911 152 180 183 142 
912 99 149 205 219 
913 205 149 99 137 
914 32 128 165 200 
915 32 165 128 99 
916 189 185 115 139 
917 115 185 189 209 
918 115 153 189 139 
919 189 153 115 209 
920 129 153 220 223 
921 220 153 129 143 
922 173 144 125 195 
923 125 144 173 123 
924 141 100 166 109 
925 166 100 141 179 
926 166 178 141 109 
927 141 178 166 179 
928 178 113 179 141 
929 178 179 113 180 
930 159 144 171 105 
931 159 171 144 194 
932 195 171 144 105 
933 195 144 171 194 
934 173 144 12 123 
935 12 144 173 71 
936 173 72 12 71 
937 202 201 102 172 
938 102 201 202 129 
939 202 130 102 129 
940 208 13 173 72 
941 208 173 13 123 
942 12 173 13 72 
943 12 13 173 123 
944 83 98 84 24 
945 83 84 98 167 
946 25 84 98 24 
947 98 134 84 25 
948 98 84 134 167 
949 208 123 212 173 
950 208 212 123 124 
951 125 212 123 173 
952 125 123 212 124 
953 190 217 148 188 
954 190 148 217 146 
955 133 148 217 188 
956 133 217 148 146 
957 182 115 181 209 
958 182 181 115 112 
959 156 181 115 209 
960 156 115 181 112 
961 220 128 129 201 
962 129 128 220 143 
963 203 170 23 82 
964 203 23 170 132 
965 223 209 156 153 
966 156 209 223 218 
967 156 131 223 153 
968 223 131 156 218 
969 201 200 102 172 
970 201 102 200 128 
971 162 202 102 172 
972 162 102 202 130 
973 214 107 158 135 
974 158 107 214 174 
975 158 228 214 135 
976 214 228 158 174 
977 28 227 4 136 
978 28 4 227 10 
979 96 4 227 136 
980 96 227 4 10 
981 159 144 70 194 
982 159 70 144 11 
983 71 70 144 194 
984 71 144 70 11 
985 196 163 170 81 
986 196 170 163 104 
987 22 170 163 81 
988 22 163 170 104 
989 161 77 106 198 
990 161 106 77 18 
991 76 106 77 198 
992 76 77 106 18 
993 162 89 102 30 
994 162 102 89 172 
3 1 4 636
995 263 344 270 357 
996 198 344 263 357 
997 249 282 351 353 
998 205 257 353 358 
999 254 351 165 353 
1000 249 351 254 353 
1001 244 196 345 347 
1002 270 349 273 357 
1003 183 348 347 350 
1004 165 351 220 353 
1005 273 349 168 357 
1006 286 358 206 361 
1007 263 270 273 357 
1008 348 350 183 354 
1009 244 239 196 347 
1010 249 248 254 351 
1011 165 205 257 353 
1012 199 198 168 357 
1013 266 270 291 349 
1014 293 347 345 355 
1015 165 257 254 353 
1016 270 344 285 357 
1017 210 168 349 357 
1018 293 345 303 355 
1019 210 199 168 357 
1020 168 177 210 349 
1021 183 347 188 350 
1022 211 347 348 355 
1023 211 225 347 355 
1024 165 220 219 353 
1025 347 348 293 350 
1026 293 350 348 354 
1027 273 270 266 349 
1028 168 273 177 349 
1029 183 190 188 347 
1030 250 353 257 358 
1031 273 177 349 362 
1032 293 348 347 355 
1033 211 190 183 347 
1034 205 250 257 358 
1035 211 212 225 355 
1036 183 211 347 348 
1037 170 347 239 352 
1038 194 264 274 345 
1039 275 279 263 344 
1040 220 351 346 353 
1041 345 347 225 355 
1042 205 353 221 358 
1043 274 194 345 365 
1044 289 360 358 361 
1045 278 274 264 345 
1046 275 344 175 364 
1047 249 254 257 353 
1048 293 303 348 355 
1049 275 263 175 344 
1050 205 169 250 358 
1051 287 301 236 347 
1052 307 347 293 350 
1053 275 279 344 364 
1054 294 350 293 354 
1055 286 259 206 358 
1056 220 346 189 353 
1057 218 209 346 349 
1058 170 196 239 347 
1059 264 194 173 345 
1060 230 196 170 347 
1061 165 219 205 353 
1062 287 236 345 347 
1063 205 221 169 358 
1064 305 279 276 344 
1065 287 345 293 347 
1066 251 286 259 361 
1067 232 236 301 347 
1068 346 351 308 353 
1069 257 250 249 353 
1070 209 349 181 354 
1071 218 181 209 349 
1072 287 303 293 345 
1073 250 288 353 358 
1074 346 349 209 354 
1075 173 264 345 355 
1076 297 344 351 357 
1077 259 286 206 361 
1078 358 360 193 361 
1079 250 288 282 353 
1080 289 358 286 361 
1081 274 345 278 365 
1082 277 278 306 345 
1083 180 181 349 354 
1084 249 250 282 353 
1085 180 349 348 354 
1086 218 349 346 357 
1087 239 347 232 352 
1088 239 236 232 347 
1089 188 350 347 352 
1090 348 355 265 362 
1091 254 200 165 351 
1092 181 178 180 349 
1093 348 349 180 362 
1094 307 293 294 350 
1095 283 349 348 362 
1096 172 260 344 351 
1097 217 347 170 352 
1098 258 256 276 364 
1099 167 241 204 359 
1100 295 292 346 354 
1101 188 347 217 352 
1102 266 273 349 362 
1103 279 270 263 344 
1104 283 265 348 355 
1105 178 180 349 362 
1106 240 242 277 365 
1107 217 230 170 347 
1108 283 348 303 355 
1109 244 171 231 345 
1110 201 351 344 357 
1111 195 345 225 355 
1112 223 346 220 351 
1113 258 276 267 364 
1114 286 288 259 358 
1115 291 349 283 362 
1116 198 175 263 344 
1117 297 351 298 357 
1118 276 256 344 364 
1119 283 348 265 362 
1120 285 298 291 357 
1121 266 291 283 362 
1122 170 239 238 352 
1123 268 277 242 365 
1124 165 200 220 351 
1125 283 292 348 349 
1126 219 220 189 353 
1127 251 259 206 361 
1128 279 305 270 344 
1129 226 206 169 358 
1130 305 276 256 344 
1131 260 252 344 351 
1132 298 349 291 357 
1133 277 345 240 365 
1134 206 358 193 361 
1135 305 276 279 270 
1136 256 276 262 258 
1137 246 277 240 242 
1138 266 349 291 362 
1139 295 346 308 363 
1140 225 345 196 347 
1141 210 349 177 362 
1142 292 349 346 354 
1143 283 303 265 355 
1144 273 269 177 362 
1145 247 213 260 344 
1146 198 202 344 357 
1147 278 345 264 355 
1148 279 267 276 364 
1149 356 358 187 363 
1150 182 209 181 354 
1151 217 188 190 347 
1152 201 344 202 357 
1153 298 295 292 346 
1154 278 271 306 345 
1155 301 232 347 352 
1156 196 171 244 345 
1157 283 265 266 362 
1158 218 209 223 346 
1159 277 306 240 345 
1160 277 268 278 365 
1161 218 346 223 357 
1162 189 220 223 346 
1163 191 187 356 358 
1164 209 185 346 354 
1165 203 170 238 352 
1166 201 172 344 351 
1167 347 350 307 352 
1168 353 187 358 363 
1169 184 183 350 354 
1170 277 278 271 306 
1171 180 348 183 354 
1172 223 346 351 357 
1173 307 352 350 359 
1174 254 255 200 351 
1175 346 354 185 363 
1176 195 225 212 355 
1177 213 172 260 344 
1178 167 352 241 359 
1179 193 358 356 360 
1180 293 348 292 354 
1181 225 196 230 347 
1182 226 193 206 358 
1183 304 295 308 363 
1184 284 352 307 359 
1185 180 182 181 354 
1186 293 303 283 348 
1187 305 276 262 256 
1188 279 276 344 364 
1189 210 349 218 357 
1190 271 265 303 355 
1191 298 346 292 349 
1192 240 277 246 306 
1193 195 173 194 345 
1194 204 241 234 359 
1195 186 191 187 356 
1196 290 233 284 359 
1197 346 353 308 363 
1198 211 225 190 347 
1199 207 350 216 359 
1200 179 208 355 362 
1201 171 231 345 365 
1202 350 294 356 363 
1203 356 358 289 360 
1204 350 352 216 359 
1205 297 305 256 344 
1206 294 293 292 354 
1207 277 278 345 365 
1208 172 202 201 344 
1209 209 182 185 354 
1210 198 199 202 357 
1211 186 356 187 363 
1212 184 350 186 363 
1213 307 350 302 359 
1214 292 348 349 354 
1215 284 290 45 233 
1216 297 248 296 351 
1217 297 53 296 248 
1218 298 346 349 357 
1219 350 356 186 363 
1220 308 346 298 351 
1221 173 345 195 355 
1222 213 344 247 364 
1223 284 307 302 359 
1224 296 308 298 351 
1225 240 306 287 345 
1226 252 297 344 351 
1227 266 269 273 362 
1228 179 355 348 362 
1229 186 350 207 356 
1230 184 207 186 350 
1231 223 351 201 357 
1232 188 216 350 352 
1233 271 345 278 355 
1234 169 206 259 358 
1235 199 210 218 357 
1236 304 308 353 363 
1237 238 239 232 352 
1238 295 354 346 363 
1239 272 355 208 362 
1240 265 283 39 303 
1241 283 291 292 349 
1242 241 352 233 359 
1243 224 201 202 357 
1244 183 180 211 348 
1245 203 217 170 352 
1246 167 203 241 352 
1247 182 180 183 354 
1248 256 252 297 344 
1249 287 236 240 345 
1250 285 270 305 344 
1251 301 347 307 352 
1252 166 272 208 362 
1253 298 351 346 357 
1254 295 294 354 363 
1255 223 201 224 357 
1256 181 218 210 349 
1257 304 356 294 363 
1258 193 356 192 360 
1259 264 71 194 274 
1260 263 76 198 168 
1261 234 204 359 360 
1262 53 297 252 248 
1263 252 248 297 351 
1264 303 345 271 355 
1265 195 196 225 345 
1266 260 252 247 344 
1267 235 174 360 361 
1268 303 306 271 345 
1269 172 255 260 351 
1270 302 350 294 356 
1271 189 353 346 363 
1272 184 354 350 363 
1273 210 178 349 362 
1274 244 231 236 345 
1275 210 177 178 362 
1276 272 265 355 362 
1277 271 265 39 303 
1278 350 354 294 363 
1279 223 220 201 351 
1280 175 77 263 275 
1281 185 182 184 354 
1282 193 191 356 358 
1283 184 183 188 350 
1284 296 52 282 249 
1285 356 359 192 360 
1286 185 354 184 363 
1287 178 181 210 349 
1288 301 47 287 236 
1289 187 353 189 363 
1290 167 216 352 359 
1291 235 214 174 361 
1292 207 188 216 350 
1293 219 221 205 353 
1294 184 182 183 354 
1295 176 251 206 361 
1296 241 203 238 352 
1297 207 356 350 359 
1298 222 192 359 360 
1299 52 296 248 249 
1300 285 291 41 270 
1301 233 352 284 359 
1302 188 217 216 352 
1303 235 360 299 361 
1304 189 209 185 346 
1305 250 259 288 358 
1306 180 179 348 362 
1307 47 301 232 236 
1308 198 202 175 344 
1309 260 255 252 351 
1310 264 71 173 194 
1311 291 283 40 266 
1312 193 191 192 356 
1313 299 360 289 361 
1314 290 234 233 359 
1315 189 346 185 363 
1316 233 46 284 352 
1317 179 166 208 362 
1318 304 302 294 356 
1319 192 356 207 359 
1320 266 283 40 265 
1321 295 304 294 363 
1322 76 263 273 168 
1323 247 344 256 364 
1324 234 45 290 233 
1325 250 169 259 358 
1326 297 296 298 351 
1327 271 278 264 355 
1328 255 172 200 351 
1329 247 252 256 344 
1330 254 248 255 351 
1331 250 51 282 288 
1332 190 230 217 347 
1333 283 292 293 348 
1334 241 233 234 359 
1335 236 231 240 345 
1336 290 359 289 360 
1337 51 282 249 250 
1338 192 207 215 359 
1339 193 360 228 361 
1340 231 240 345 365 
1341 206 193 228 361 
1342 222 359 204 360 
1343 180 178 179 362 
1344 289 359 356 360 
1345 266 41 291 270 
1346 215 167 204 359 
1347 233 232 46 352 
1348 213 202 172 344 
1349 221 353 187 358 
1350 175 344 202 364 
1351 286 299 289 361 
1352 298 292 291 349 
1353 187 189 185 363 
1354 189 223 209 346 
1355 180 179 211 348 
1356 202 344 213 364 
1357 301 287 293 347 
1358 215 204 222 359 
1359 264 173 72 355 
1360 203 238 170 82 
1361 222 192 215 359 
1362 299 300 235 361 
1363 218 223 224 357 
1364 195 171 196 345 
1365 91 165 254 200 
1366 167 215 216 359 
1367 304 353 288 358 
1368 287 306 303 345 
1369 288 286 289 358 
1370 305 297 285 344 
1371 207 216 215 359 
1372 175 77 198 263 
1373 195 345 194 365 
1374 269 272 166 362 
1375 171 345 195 365 
1376 72 173 208 355 
1377 307 301 293 347 
1378 225 230 190 347 
1379 235 44 299 360 
1380 302 289 290 359 
1381 84 204 167 241 
1382 238 170 82 239 
1383 284 301 307 352 
1384 50 259 286 288 
1385 234 359 290 360 
1386 44 290 299 360 
1387 221 187 191 358 
1388 175 202 213 364 
1389 167 216 203 352 
1390 179 208 212 355 
1391 167 203 83 241 
1392 282 288 304 353 
1393 205 257 92 165 
1394 295 294 292 354 
1395 302 356 289 359 
1396 254 255 91 200 
1397 199 224 202 357 
1398 266 265 269 362 
1399 189 187 219 353 
1400 201 220 200 351 
1401 228 360 174 361 
1402 171 195 194 365 
1403 295 298 308 346 
1404 173 195 212 355 
1405 201 200 172 351 
1406 273 75 168 177 
1407 254 92 257 165 
1408 203 83 241 238 
1409 276 58 262 258 
1410 56 277 246 242 
1411 222 193 192 360 
1412 208 166 73 272 
1413 226 169 221 358 
1414 304 289 356 358 
1415 302 350 356 359 
1416 251 300 286 361 
1417 207 184 188 350 
1418 204 84 234 241 
1419 196 244 81 239 
1420 95 251 206 176 
1421 214 237 227 361 
1422 271 272 265 355 
1423 234 243 204 360 
1424 214 235 237 361 
1425 44 234 290 360 
1426 187 221 219 353 
1427 258 247 256 364 
1428 72 272 264 355 
1429 231 242 240 365 
1430 227 253 176 361 
1431 203 216 217 352 
1432 192 186 207 356 
1433 286 251 259 50 
1434 185 184 186 363 
1435 255 248 252 351 
1436 276 58 258 267 
1437 277 56 268 242 
1438 269 73 166 272 
1439 273 75 177 269 
1440 208 272 72 355 
1441 238 232 233 352 
1442 176 214 227 361 
1443 235 174 243 360 
1444 253 251 176 361 
1445 196 81 170 239 
1446 213 260 89 247 
1447 235 214 86 174 
1448 237 253 227 361 
1449 231 244 80 171 
1450 237 235 300 361 
1451 235 243 44 360 
1452 193 226 191 358 
1453 304 308 282 353 
1454 238 233 241 352 
1455 186 192 191 356 
1456 304 288 289 358 
1457 172 90 255 200 
1458 80 196 171 244 
1459 50 250 259 288 
1460 228 174 214 361 
1461 218 224 199 357 
1462 269 166 177 362 
1463 302 307 294 350 
1464 187 185 186 363 
1465 265 272 269 362 
1466 172 90 260 255 
1467 172 89 213 260 
1468 228 193 174 360 
1469 268 242 55 280 
1470 258 57 281 267 
1471 300 43 299 235 
1472 258 267 281 364 
1473 242 55 280 245 
1474 57 281 261 258 
1475 275 267 279 364 
1476 228 176 206 361 
1477 274 278 268 365 
1478 268 242 280 365 
1479 258 281 261 364 
1480 174 204 243 360 
1481 177 269 74 166 
1482 212 208 173 355 
1483 242 245 280 365 
1484 302 304 289 356 
1485 253 300 251 361 
1486 44 243 234 360 
1487 177 166 178 362 
1488 78 281 275 364 
1489 306 240 287 48 
1490 305 256 54 297 
1491 70 274 280 365 
1492 284 302 290 359 
1493 274 70 194 365 
1494 253 237 300 361 
1495 79 231 171 365 
1496 179 178 166 362 
1497 261 88 247 364 
1498 48 240 287 236 
1499 231 79 245 365 
1500 222 174 193 360 
1501 276 305 42 270 
1502 78 275 175 364 
1503 78 229 281 364 
1504 221 191 226 358 
1505 264 272 271 355 
1506 286 251 49 300 
1507 229 88 261 364 
1508 79 171 197 365 
1509 222 204 174 360 
1510 256 54 297 252 
1511 277 271 38 306 
1512 290 289 299 360 
1513 79 197 245 365 
1514 70 197 194 365 
1515 72 264 71 173 
1516 70 280 197 365 
1517 285 42 305 270 
1518 95 259 206 251 
1519 88 213 247 364 
1520 95 251 176 253 
1521 78 175 229 364 
1522 198 76 263 77 
1523 214 237 235 86 
1524 303 38 271 306 
1525 300 237 43 235 
1526 86 243 235 174 
1527 88 229 213 364 
1528 73 74 269 166 
1529 91 255 90 200 
1530 75 177 269 74 
1531 70 194 71 274 
1532 58 57 258 267 
1533 242 56 268 55 
1534 84 234 243 204 
1535 80 81 196 244 
1536 299 286 300 361 
1537 77 175 78 275 
1538 94 206 259 169 
1539 203 83 238 82 
1540 229 261 281 364 
1541 213 88 247 89 
1542 80 79 231 171 
1543 254 92 165 91 
1544 259 93 169 250 
1545 176 228 214 361 
1546 47 48 287 236 
1547 245 197 280 365 
1548 251 253 49 300 
1549 85 243 174 204 
1550 170 82 239 81 
1551 246 277 5 306 
1552 84 243 85 204 
1553 90 260 89 172 
1554 276 6 305 262 
1555 8 280 245 197 
1556 227 10 96 59 
1557 237 59 227 253 
1558 261 247 258 364 
1559 227 87 10 59 
1560 9 229 261 281 
1561 96 176 227 253 
1562 94 93 169 259 
1563 242 231 245 365 
1564 214 87 227 237 
1565 76 273 75 168 
1566 53 297 54 252 
1567 72 208 73 272 
1568 267 275 281 364 
1569 194 197 171 365 
1570 274 268 280 365 
1571 301 46 47 232 
1572 296 53 52 248 
1573 306 246 240 48 
1574 7 59 237 300 
1575 253 237 59 300 
1576 256 262 305 54 
1577 59 7 253 300 
1578 176 96 95 253 
1579 214 87 237 86 
1580 283 39 40 265 
1581 234 290 45 44 
1582 84 167 83 241 
1583 175 213 229 364 
1584 8 70 280 197 
1585 6 276 58 262 
1586 5 56 277 246 
1587 9 78 229 281 
1588 245 79 8 197 
1589 96 227 59 253 
1590 88 9 229 261 
1591 95 94 206 259 
1592 92 257 205 93 
1593 59 227 87 237 
1594 51 250 50 288 
1595 280 55 8 245 
1596 281 261 9 57 
1597 52 282 249 51 
1598 46 284 45 233 
1599 291 40 41 266 
1600 85 243 86 174 
1601 43 7 237 300 
1602 299 43 44 235 
1603 49 253 7 300 
1604 286 49 251 50 
1605 271 39 38 303 
1606 5 246 306 48 
1607 38 5 277 306 
1608 41 42 285 270 
1609 305 42 6 276 
1610 6 305 262 54 
1611 347 244 236 345 
1612 347 236 244 239 
1613 282 351 308 296 
1614 308 351 282 353 
1615 291 357 270 285 
1616 270 357 291 349 
1617 250 205 93 169 
1618 250 93 205 257 
1619 296 249 351 248 
1620 351 249 296 282 
1621 357 297 285 298 
1622 357 285 297 344 
1623 168 263 357 198 
1624 168 357 263 273 
1625 355 211 179 348 
1626 355 179 211 212 
1627 352 46 301 232 
1628 352 301 46 284 
1629 358 363 304 353 
1630 304 363 358 356 
3 2 4 256
1631 322 308 366 368 
1632 322 329 308 368 
1633 282 322 308 366 
1634 307 367 316 371 
1635 282 308 304 366 
1636 327 322 366 368 
1637 308 295 366 368 
1638 327 329 322 368 
1639 282 322 366 370 
1640 307 366 367 371 
1641 307 301 316 367 
1642 308 329 296 368 
1643 282 366 304 370 
1644 291 342 367 368 
1645 314 316 367 371 
1646 314 367 366 371 
1647 309 307 316 371 
1648 329 322 308 296 
1649 307 366 294 367 
1650 308 295 304 366 
1651 283 291 342 367 
1652 292 366 295 368 
1653 340 367 342 368 
1654 326 310 323 366 
1655 283 342 336 367 
1656 292 294 295 366 
1657 307 294 366 371 
1658 313 310 326 366 
1659 316 307 309 301 
1660 307 293 301 367 
1661 323 366 310 369 
1662 333 366 322 370 
1663 292 367 366 368 
1664 309 316 314 371 
1665 336 342 340 367 
1666 287 303 318 367 
1667 287 316 301 367 
1668 303 287 318 306 
1669 343 318 303 367 
1670 286 299 300 370 
1671 299 290 317 371 
1672 309 284 307 371 
1673 333 327 322 366 
1674 294 366 292 367 
1675 307 284 309 301 
1676 282 308 322 296 
1677 303 318 343 306 
1678 297 296 329 368 
1679 291 367 292 368 
1680 299 317 321 371 
1681 308 296 298 368 
1682 321 300 299 370 
1683 318 343 338 367 
1684 287 301 293 367 
1685 297 331 285 368 
1686 291 283 292 367 
1687 286 300 334 370 
1688 307 294 293 367 
1689 297 331 305 285 
1690 330 322 282 370 
1691 320 366 313 370 
1692 316 287 318 367 
1693 321 334 300 370 
1694 308 298 295 368 
1695 318 338 311 367 
1696 313 366 326 370 
1697 297 298 296 368 
1698 320 366 370 371 
1699 320 313 312 370 
1700 330 282 288 370 
1701 331 337 305 285 
1702 299 321 370 371 
1703 331 337 285 368 
1704 291 285 342 368 
1705 312 313 326 370 
1706 299 370 290 371 
1707 326 323 327 366 
1708 310 313 314 366 
1709 304 295 294 366 
1710 331 297 329 368 
1711 304 366 294 371 
1712 310 366 314 369 
1713 327 366 323 369 
1714 326 325 312 370 
1715 67 310 323 326 
1716 327 368 366 369 
1717 366 367 314 369 
1718 304 370 366 371 
1719 342 285 337 368 
1720 304 294 302 371 
1721 328 368 327 369 
1722 367 368 340 369 
1723 287 293 303 367 
1724 314 367 315 369 
1725 326 67 310 313 
1726 326 366 333 370 
1727 325 334 312 370 
1728 333 322 330 370 
1729 321 312 334 370 
1730 312 320 370 371 
1731 314 366 320 371 
1732 326 327 333 366 
1733 320 314 313 366 
1734 293 294 292 367 
1735 299 289 290 370 
1736 336 343 303 367 
1737 336 303 283 367 
1738 331 324 337 368 
1739 324 327 328 368 
1740 335 368 328 369 
1741 314 311 315 367 
1742 324 328 335 368 
1743 297 285 298 368 
1744 311 338 339 367 
1745 339 367 340 369 
1746 304 288 282 370 
1747 312 68 326 313 
1748 315 311 339 367 
1749 332 310 319 369 
1750 339 315 367 369 
1751 330 282 322 51 
1752 302 370 304 371 
1753 311 314 316 367 
1754 316 318 311 367 
1755 290 370 289 371 
1756 293 283 303 367 
1757 332 319 310 66 
1758 309 314 320 371 
1759 323 310 332 369 
1760 292 295 298 368 
1761 326 325 68 312 
1762 284 46 309 301 
1763 51 330 282 288 
1764 335 337 324 368 
1765 310 323 332 66 
1766 292 283 293 367 
1767 366 368 367 369 
1768 326 333 325 370 
1769 327 324 329 368 
1770 286 330 288 370 
1771 321 69 300 334 
1772 328 327 323 369 
1773 310 314 315 369 
1774 286 334 330 370 
1775 335 340 368 369 
1776 307 302 294 371 
1777 318 65 338 343 
1778 316 309 46 301 
1779 312 325 69 334 
1780 321 312 69 334 
1781 329 324 331 368 
1782 317 290 299 44 
1783 322 52 282 296 
1784 298 285 291 368 
1785 318 65 343 306 
1786 342 337 340 368 
1787 302 289 304 370 
1788 331 337 62 305 
1789 52 322 329 296 
1790 312 317 320 371 
1791 290 45 317 371 
1792 336 340 339 367 
1793 47 287 316 301 
1794 298 291 292 368 
1795 289 370 302 371 
1796 340 337 335 368 
1797 336 39 283 303 
1798 286 289 299 370 
1799 342 291 41 285 
1800 317 299 321 44 
1801 343 39 336 303 
1802 341 319 315 369 
1803 341 328 332 369 
1804 329 297 53 296 
1805 317 45 309 371 
1806 336 338 343 367 
1807 291 40 283 342 
1808 336 283 40 342 
1809 332 319 341 369 
1810 338 65 318 311 
1811 337 342 41 285 
1812 284 45 290 371 
1813 338 336 339 367 
1814 339 340 335 369 
1815 61 324 335 337 
1816 309 45 284 371 
1817 286 330 50 288 
1818 316 318 287 47 
1819 60 332 341 328 
1820 330 334 286 50 
1821 324 331 337 62 
1822 339 341 315 369 
1823 290 289 302 371 
1824 324 335 328 61 
1825 66 310 323 67 
1826 63 341 319 315 
1827 297 331 329 53 
1828 288 304 289 370 
1829 328 341 335 369 
1830 284 302 307 371 
1831 323 332 328 369 
1832 319 310 315 369 
1833 286 288 289 370 
1834 341 63 339 315 
1835 325 333 330 370 
1836 341 335 60 328 
1837 67 326 68 313 
1838 305 337 42 285 
1839 325 68 312 69 
1840 69 300 43 321 
1841 52 329 53 296 
1842 319 1 332 341 
1843 47 316 46 301 
1844 62 337 42 305 
1845 283 40 39 336 
1846 49 300 69 334 
1847 63 339 315 64 
1848 337 61 324 62 
1849 309 46 284 45 
1850 282 52 322 51 
1851 330 334 325 370 
1852 65 5 38 306 
1853 62 42 6 305 
1854 306 65 5 48 
1855 343 65 38 306 
1856 305 6 62 54 
1857 302 284 290 371 
1858 318 65 306 48 
1859 305 62 331 54 
1860 65 338 64 311 
1861 290 317 45 44 
1862 320 317 309 371 
1863 299 43 300 321 
1864 330 51 50 288 
1865 1 332 341 60 
1866 300 43 7 69 
1867 7 49 300 69 
1868 291 41 40 342 
1869 41 42 337 285 
1870 339 335 341 369 
1871 319 332 1 66 
1872 49 286 300 334 
1873 341 319 1 63 
1874 343 38 303 306 
1875 335 60 328 61 
1876 343 38 39 303 
1877 331 305 54 297 
1878 287 318 306 48 
1879 48 287 318 47 
1880 299 43 321 44 
1881 297 54 331 53 
1882 49 286 334 50 
1883 371 321 312 317 
1884 371 312 321 370 
1885 339 311 64 338 
1886 64 311 339 315 
$EndElements
